{
  "items": [
    {
      "slug": "wiosenny-przeglad-rynku",
      "title": "Wiosenny przegląd rynku",
      "section": "Gospodarka",
      "tags": ["inflacja", "ekonomia"],
      "created_at": "2024-03-04T08:15:00Z",
      "updated_at": "2024-03-05T10:30:00Z"
    },
    {
      "slug": "fintechowe-innowacje-2024",
      "title": "Fintechowe innowacje 2024",
      "section": "Technologie",
      "tags": ["fintech", "bankowosc"],
      "created_at": "2024-03-10T11:00:00Z",
      "updated_at": "2024-03-10T11:00:00Z"
    }
  ],
  "total": 48,
  "page": 1,
  "page_size": 10,
  "total_pages": 5
}
